This is a UTF8 document with common and interesting symbols that can serve as a
quick copy-paste cheatsheet or as a testing file. By drummyfish, released under
CC0 1.0.

regular ASCII:
  ! " # $ % & ' ( ) * + - . / 0 1 2 3 4 5 6 7
  8 9 : ; < = > ? @ A B C D E F G H I J K L M
  N O P Q R S T U V W X Y Z [ \ ] ^ _ @ ` a b
  c d e f g h i j k l m n o p q r s t u v w x
  y z { | } ~

accents and specific other text characters:
  aáàâäåæÆ
  eéèêë 
  iíìîï
  oóòôöõ
  uúùûüů

  AÁÀÂÄÃ
  EÉÈÊË
  IÍÌÎÏ
  OÓÒÔÖÕ
  UÚÙÛÜ

  nňñ
  tť
  dť
  rř
  sš
  cčç
  zž

  NŇÑ
  TŤ
  DĎ
  RŘ
  SŠ
  CČÇ
  ZŽ

  „“
  ¿ ¡
  − – — -

emoticons:
  
  😀 😁 😂 😃 😄 😅 😆 😇 😈 😉 😊 😋 😌 😍 😎 😏 😐 😑 😒 😓 😔 😕
  😖 😗 😘 😙 😚 😛 😜 😝 😞 😟 😠 😡 😢 😣 😤 😥 😦 😧 😨 😩 😪 😫
  😬 😭 😮 😯 😰 😱 😲 😳 😴 😵 😶 😷 😸 😹 😺 😻 😼 😽 😾 😿
  ☺ ☹ ☻ ツ ッ

greek:
  Α Β Γ Δ Ε Ζ Η Θ Ι Κ Λ Μ Ν Ξ Ο Π Ρ Σ  Τ Υ Φ Χ Ψ Ω
  α β γ δ ε ζ η θ ι κ λ μ ν ξ ο π ρ σς τ υ φ χ ψ ω

chinese/japanese:
  漢 字 阪 熊 奈 岡 鹿 梨 阜 埼 茨 栃 媛 

  hiragana:
    あ い う え お か き く け こ が ぎ ぐ げ ご さ し す せ そ ざ じ ず ぜ ぞ た ち
    つ て と だ ぢ づ で ど な に ぬ ね の は ひ ふ へ ほ ば び ぶ べ ぼ ぱ ぴ ぷ ぺ
    ぽ ま み む め も や ゆ よ ら り る れ ろ わ ゐ ゑ を

  katakana:
    ア イ ウ エ オ k カ キ ク ケ コ ガ ギ グ ゲ ゴ サ シ ス セ ソ ザ ジ ズ ゼ ゾ タ
    チ ツ テ ト ダ ヂ ヅ デ ド ナ ニ ヌ ネ ノ ハ ヒ フ ヘ ホ バ ビ ブ ベ ボ パ ピ プ
    ペ ポ マ ミ ム メ モ ヤ ユ ヨ ラ リ ル レ ロ ワ ヰ ヱ ヲ ン ッ ヽ ゛゜

cyrillic:
  А Б В Г Ґ Д Е Ё Є Ж З И Й К Л М Н О П Р С Т У Ф Х Ц Ч Ш Щ Ъ Ы Ь Э Ю Я І Ї Ѣ Ѳ Ѵ
  а б в г ґ д е ё є ж з и й к л м н о п р с т у ф х ц ч ш щ ъ ы ь э ю я і ї ѣ ѳ ѵ

arabic:
 ظ ض ذ خ ث ت ش ر ق ص ف ع س ن م ل ك ي ط ح ز و ه د ج ب 
ﷺ
math:
  + - − * / × ± ∓ ÷ ∣ ∪ √ ¬ ⊕ ⊖ ⊗ ⊙ ⋅ ∥ ∧ ∨ ∩ ∪
  ∏ ∑ ∫ ⋀ ⋁ ⋂ ⋃
  < > ≦ ≧ ≤ ≥ = ≟ ≅ ≠ ⇒ ⇐ ⬄ ≺ ≻ ⋞ ⋟ ⊂ ⊃ ⊄ ⊅ ⊆ ⊇
  ∈ ∉ ∀ ∃ ∄ ∊ ⊢ ⊣
  ∞ % ∅ ∆ ∡
  ⋮ ⋯ ⋱ ⋰ ◻
  𝕬 𝕭 𝕮 𝕯 𝕰 𝕱 𝕲 𝕳 𝕴 𝕵 𝕶 𝕷 𝕸 𝕹 𝕺 𝕻 𝕼 𝕽 𝕾 𝕿 𝖀 𝖁 𝖂 𝖃 𝖄 𝖅
 ⟪ ⟫ ⧼ ⧽
 sup: ⁰ⁱ²³⁴⁵⁶⁷⁸⁹⁺⁻⁼⁽⁾ 
 sub: ₀₁₂₃₄₅₆₇₈₉₊₋₌₍₎
 ⎲
 ⎳

graphics:
  ┌─┬─┐       ╭─╮ ┏┓
  │ ┊ │   ╳   │ │ ┗┛
  ├─┼─┤  ╱ ╲  ╰─╯
  └┈┴┈┘
  ░▒▓█▅▁ ▐▌▙▛▚▞▜▟▗▄▖▝▀▘

chess:
  ♔ ♕ ♖ ♗ ♘ ♙
  ♚ ♛ ♜ ♝ ♞ ♟︎

other:
  ⭠ ⭡ ⭢ ⭣ ⭤ ⭥ ⭦ ⭧ ⭨ ⭩ ☀ ☆ ★ ☏ ☠
  ☮ Ⓐ 卐 卍 ☢ ☣ ☪ ☯ ☭ ☰ ☾ 
  ♀ ♁ ♂ ⚥ ♡ ♪ ♫ 𝄞 ♿ ⚅ ⚠ ⚬ ⚽
  ⛤ € £ ✂ ✈ ✓ © ™ ® ⁋ ⏚ ⏎ ℃
  ⒛ ⓯ ⬡
  ■ □ ▢ ▣ ▤ ▥ ▲ ▼ ◀ ▶
  △ ▽ ◁ ▷ ◆ ○ ◎ ● ◑ ◐ ◤
   ⛱ ⛺ ⛏ ๛ ✞ ☑ ☒ ⌛  ⌚ ⚡ ௵

transformed:
  ˙'‾¡¿68𝘓95߈Ɛⵒ⇂0
  Z⅄XMΛᑎ⊥SᴚꝹԀONW⅂𝈲ᒋIH⅁ℲƎᗡↃᗺ∀
  zʎxʍʌnʇsɹbdouɯlʞɾᴉɥɓɟǝpɔqɐ

    ઽʏxwvuɈƨךpqonmlʞἱi⑁ϱƪɘbɔdɒ
  SYXWVUTꙄЯ𝚀ꟼOИM⅃𝈲ᒐIHӘꟻƎᗡↃᗺA
       ୧8Ⲅ∂ਟᔨƐ5ⵤ0⸮!_,.

     ⬭ᗆ
     ⥛ᗵ
       ᑎᴒ
        ᗜ
        𐎍
    Պ
   のƢ
    ⌶
         𝄩
       ᓚ
         ⚻
    ⌐
        ᕒ
    Ζ
    O
       ᓀ
    Q
         ᘞ
       ᔕ
    ⊣
    C
    <
        ᓬ
    X
         𝈄
    N

homoglyphs:

  char   almost same     similar
  ---------------------------
  A      ΑАＡ𝙰            𝐀ⒶДд⩜𝒜𝗔
  B      ΒВＢ𝙱            ℬ𝐁𝕭вβß𝗕
  C      ϹСⅭＣ𝙲           ℂ𝐂𝕮𝒞𝗖
  D      ⅮＤ𝙳             𝐃𝕯𝒟𝗗ⅅ
  E      ΕЕＥ𝙴            𝐄∈𝕰ξヨ𝗘ℰ
  F      ϜＦ𝙵             𝐅𝕱𝗙ℱ
  G      ԌＧ𝙶             𝐆𝕲𝗚
  H      ΗНＨ𝙷            ℋℍ𝐇𝕳𝗛 
  I      ΙІⅠＩ𝙸          𝐈エ𝗜
  J      ЈＪ𝙹             ℑ𝐉𝕵𝒥𝗝
  K      ΚКKＫ𝙺           𝐊κ𝒦𝗞
  L      ⅬＬ𝙻             ℒ𝐋𝕷𝗟
  M      ΜМⅯＭ𝙼           ℳ𝐌𝕸м𝗠
  N      ΝＮ𝙽             ℕℵ𝐍Ии𝒩 𝗡
  O      ΟОＯ𝙾            𝐎𝕺𝒪 𝗢
  P      ΡРＰ𝙿            ℙ𝐏𝒫 𝗣
  Q      Ｑ𝚀              ℚ𝐐𝕼𝗤
  R      Ｒ𝚁              ℛℜℝ𝐑𝕽Яя𝗥 
  S      ЅＳ𝚂             𝐒𝗦
  T      ΤТＴ𝚃            𝐓τ𝒯𝗧 
  U      Ｕ𝚄              𝐔𝖀∪⋃𝒰𝗨
  V      ⅤＶ𝚅            𝐕Ѵ𝒱𝗩
  W      Ｗ𝚆              𝐖⨈𝒲𝗪
  X      ΧХⅩＸ𝚇          𝐗𝖃Жχ𝒳𝗫
  Y      ΥҮＹ𝚈            𝐘𝖄𝒴𝗬
  Z      ΖＺ𝚉             ℤ𝐙ζ𝒵𝗭
  a      аａ𝚊             𝐚𝕒𝒶𝗮
  b      Ьｂ𝚋             𝐛𝕓ЪъьБбѢѣ𝒷𝗯
  c      ϲсⅽｃ𝚌           𝐜𝕔©⊂𝒸𝗰
  d      ⅾｄ𝚍             𝐝𝕕ԁ𝒹𝗱ⅆ
  e      еｅℯ𝚎            𝐞𝕖℮𝗲ⅇ
  f      ｆ𝚏              𝐟𝕗⨍⨏𝒻𝗳
  g      ｇ𝚐              𝐠𝕘𝗴
  h      һｈℎ𝚑            𝐡𝕙𝒽𝗵ℏ
  i      іⅰｉ𝚒           𝐢𝕚𝒾 𝗶ⅈℹ
  j      јｊ𝚓             𝐣𝕛𝒿𝗷ⅉ
  k      ｋ𝚔              𝐤𝕜𝓀𝗸
  l      ⅼｌ𝚕              𝐥𝕝𝓁𝗹
  m      ⅿｍ𝚖            𝐦𝕞⩋𝓂𝗺ɱ
  n      ｎ𝚗              𝐧𝕟𝓃𝗻
  o      οоｏ𝚘            𝐨𝕠○𝗼
  p      рｐ𝚙             𝐩𝕡ρ𝗽℗
  q      ｑ𝚚              𝐪𝕢𝓆𝗾
  r      ｒ𝚛              𝐫𝕣г𝓇𝗿ℾ
  s      ѕｓ𝚜             𝐬𝕤𝓈𝘀
  t      ｔ𝚝              𝐭𝕥𝓉𝘁
  u      ｕ𝚞              𝐮𝕦𝓊𝘂
  v      ⅴｖ𝚟            𝐯𝕧υѵ𝓋𝘃
  w      ｗ𝚠              ѡ𝐰𝕨⩊𝓌𝘄
  x      хⅹｘ𝚡           𝐱𝕩ж⨯𝓍𝘅
  y      уｙ𝚢             𝐲𝕪𝓎𝘆
  z      ｚ𝚣              𝐳𝕫𝓏𝘇
  0      OΟОՕ            Ѳ
  1      １               ↿˦
  2      ２                              Ϩ𝟚շ𝟐ᒿ
  3      ３                                   𝖅ʒℨЭ𝟑ვՅᴟ𝟛
  4      ４
  5       ５                  ち
  6      ６               б
  7      ７
  8      ８
  9      ９
  @      ＠
  =      ＝
  (     （
  )      ）
  |      ｜
  
